0.129201 4096
0.129207 8192
0.129210 12288
0.129212 16384
0.129220 20480
0.129224 24576
0.129233 28672
0.129236 32768
0.129241 36864
0.129243 40960
0.129246 45056
0.129259 49152
0.129272 53248
0.129274 57344
0.129279 61440
0.129280 65536
0.129281 69632
0.129283 73728
0.129286 77824
0.129295 81920
0.129298 86016
0.129300 90112
0.129302 94208
0.129303 98304
0.129305 102400
0.129306 106496
0.129310 110592
0.129312 114688
0.129314 118784
0.129318 122880
0.129323 126976
0.129325 131072
0.129335 135168
0.129337 139264
0.129339 143360
0.129341 147456
0.129343 151552
0.129345 155648
0.129350 159744
0.129352 163840
0.129354 167936
0.129355 172032
0.129356 176128
0.129359 180224
0.129362 184320
0.129364 188416
0.129366 192512
0.129368 196608
0.129369 200704
0.129372 204800
0.129374 208896
0.129376 212992
0.129378 217088
0.129382 221184
0.129383 225280
0.129386 229376
0.129388 233472
0.129392 237568
0.129394 241664
0.129399 245760
0.129401 249856
0.129403 253952
0.129405 258048
0.129407 262144
0.129408 266240
0.129410 270336
0.129412 274432
0.129414 278528
0.129416 282624
0.129421 286720
0.129424 290816
0.129426 294912
0.129428 299008
0.129430 303104
0.129432 307200
0.129436 311296
0.129438 315392
0.129443 319488
0.129452 323584
0.129454 327680
0.129456 331776
0.129459 335872
0.129461 339968
0.129466 344064
0.129468 348160
0.129470 352256
0.129482 356352
0.129488 360448
0.129491 364544
0.129494 368640
0.129496 372736
0.129498 376832
0.129499 380928
0.129503 385024
0.129505 389120
0.129506 393216
0.129508 397312
0.129510 401408
0.129512 405504
0.129515 409600
0.129518 413696
0.129525 417792
0.129528 421888
0.129531 425984
0.129532 430080
0.129534 434176
0.129536 438272
0.129538 442368
0.129541 446464
0.129542 450560
0.129543 454656
0.129546 458752
0.129547 462848
0.129549 466944
0.129550 471040
0.129552 475136
0.129554 479232
0.129555 483328
0.129556 487424
0.129558 491520
0.129559 495616
0.129561 499712
0.129568 503808
0.129571 507904
0.129572 512000
0.129675 516096
0.129705 520192
0.129706 524288
0.129707 528384
0.129708 532480
0.129723 536576
0.129735 540672
0.129754 544768
0.129772 548864
0.129788 552960
0.129817 548864
0.129818 544768
0.129819 540672
0.129819 536576
0.129819 532480
0.129820 528384
0.129820 524288
0.129821 520192
0.129821 516096
0.129822 512000
0.129823 507904
0.129823 503808
0.129826 499712
0.129826 495616
0.129827 491520
0.129828 487424
0.129828 483328
0.129828 479232
0.129829 475136
0.129829 471040
0.129829 466944
0.129829 462848
0.129830 458752
0.129830 454656
0.129830 450560
0.129831 446464
0.129831 442368
0.129831 438272
0.129831 434176
0.129832 430080
0.129832 425984
0.129832 421888
0.129833 417792
0.129833 413696
0.129833 409600
0.129833 405504
0.129834 401408
0.129834 397312
0.129834 393216
0.129834 389120
0.129834 385024
0.129835 380928
0.129835 376832
0.129837 372736
0.129837 368640
0.129837 364544
0.129838 360448
0.129838 356352
0.129838 352256
0.129839 348160
0.129839 344064
0.129839 339968
0.129839 335872
0.129839 331776
0.129840 327680
0.129840 323584
0.129840 319488
0.129840 315392
0.129841 311296
0.129842 307200
0.129842 303104
0.129842 299008
0.129842 294912
0.129843 290816
0.129843 286720
0.129843 282624
0.129844 278528
0.129844 274432
0.129844 270336
0.129845 266240
0.129845 262144
0.129846 258048
0.129846 253952
0.129846 249856
0.129848 245760
0.129848 241664
0.129849 237568
0.129849 233472
0.129849 229376
0.129850 225280
0.129850 221184
0.129851 217088
0.129851 212992
0.129851 208896
0.129851 204800
0.129851 200704
0.129852 196608
0.129854 192512
0.129854 188416
0.129854 184320
0.129855 180224
0.129855 176128
0.129858 172032
0.129858 167936
0.129858 163840
0.129859 159744
0.129859 155648
0.129860 151552
0.129860 147456
0.129860 143360
0.129860 139264
0.129861 135168
0.129861 131072
0.129861 126976
0.129861 122880
0.129863 118784
0.129863 114688
0.129864 110592
0.129866 106496
0.129866 102400
0.129867 98304
0.129867 94208
0.129867 90112
0.129867 86016
0.129868 81920
0.129868 77824
0.129868 73728
0.129869 69632
0.129869 65536
0.129870 61440
0.129870 57344
0.129870 53248
0.129871 49152
0.129872 45056
0.129872 40960
0.129872 36864
0.129873 32768
0.129873 28672
0.129873 24576
0.129874 20480
0.129874 16384
0.129874 12288
0.129874 8192
0.129874 4096
0.129874 0
0.129875 -4096
0.129877 -8192
0.129877 -12288
0.129877 -16384
0.129877 -20480
0.129878 -24576
0.129878 -28672
0.129879 -32768
0.129879 -36864
0.129879 -40960
0.129879 -45056
0.129879 -49152
0.129880 -53248
0.129880 -57344
0.129880 -61440
0.129881 -65536
0.129881 -69632
0.129882 -73728
0.129882 -77824
0.129882 -81920
0.129882 -86016
0.129882 -90112
0.129883 -94208
0.129883 -98304
0.129883 -102400
0.129883 -106496
0.129884 -110592
0.129884 -114688
0.129884 -118784
0.129884 -122880
0.129884 -126976
0.129884 -131072
0.129886 -135168
0.129887 -139264
0.129887 -143360
0.129887 -147456
0.129887 -151552
0.129888 -155648
0.129888 -159744
0.129888 -163840
0.129888 -167936
0.129888 -172032
0.129889 -176128
0.129889 -180224
0.129889 -184320
0.129889 -188416
0.129889 -192512
0.129889 -196608
0.129890 -200704
0.129890 -204800
0.129890 -208896
0.129890 -212992
0.129890 -217088
0.129891 -221184
0.129891 -225280
0.129891 -229376
0.129891 -233472
0.129891 -237568
0.129891 -241664
0.129892 -245760
0.129892 -249856
0.129892 -253952
0.129892 -258048
0.129894 -262144
0.129895 -266240
0.129895 -270336
0.129895 -274432
0.129895 -278528
0.129895 -282624
0.129896 -286720
0.129896 -290816
0.129896 -294912
0.129896 -299008
0.129896 -303104
0.129896 -307200
0.129897 -311296
0.129897 -315392
0.129897 -319488
0.129897 -323584
0.129897 -327680
0.129898 -331776
0.129898 -335872
0.129898 -339968
0.129910 -335872
0.129911 -331776
0.129912 -335872
0.129912 -339968
0.129915 -335872
0.129916 -331776
0.129916 -327680
0.129917 -323584
0.129927 -319488
0.129927 -315392
0.129928 -311296
0.129936 -307200
0.129948 -303104
0.129951 -299008
0.129956 -294912
0.129959 -290816
0.129964 -286720
0.129965 -282624
0.129965 -278528
0.129966 -274432
0.129967 -270336
0.129969 -266240
0.129994 -262144
0.129997 -258048
0.129999 -253952
0.130009 -249856
0.130016 -245760
0.130017 -241664
0.130019 -237568
0.130036 -233472
0.130039 -229376
0.130041 -225280
0.130060 -221184
0.130060 -217088
0.130063 -212992
0.130076 -208896
0.130076 -204800
0.130080 -200704
0.130089 -196608
0.130094 -192512
0.130097 -188416
0.130099 -184320
0.130111 -180224
0.130111 -176128
0.130114 -172032
0.130124 -167936
0.130126 -163840
0.130127 -159744
0.130133 -155648
0.130138 -151552
0.130140 -147456
0.130141 -143360
0.130154 -139264
0.130156 -135168
0.130158 -131072
0.130167 -126976
0.130172 -122880
0.130173 -118784
0.130176 -114688
0.130178 -110592
0.130200 -106496
0.130207 -102400
0.130220 -98304
0.130235 -94208
0.130244 -90112
0.130245 -86016
0.130248 -81920
0.130255 -77824
0.130261 -73728
0.130275 -69632
0.130279 -73728
0.130282 -69632
0.130290 -65536
0.130291 -61440
0.130312 -57344
0.130341 -53248
0.130346 -49152
0.130346 -45056
0.130360 -40960
0.130367 -36864
0.130371 -32768
0.130372 -28672
0.130379 -24576
0.130380 -20480
0.130382 -16384
0.130383 -12288
0.158170 -8192
0.158173 -4096
0.158175 0
0.158184 4096
0.158291 8192
0.158295 12288
0.158297 16384
0.158305 20480
0.158310 24576
0.158314 28672
0.158318 32768
0.158323 36864
0.158339 40960
0.158401 45056
0.158456 49152
0.158509 53248
0.158562 57344
0.158615 61440
0.158669 65536
0.158722 69632
0.158776 73728
0.158830 77824
0.158883 81920
0.158936 86016
0.158989 90112
0.159031 94208
0.159085 98304
0.159138 102400
0.159192 106496
0.159245 110592
0.159298 114688
0.159352 118784
0.159406 122880
0.159459 126976
0.159513 131072
0.159566 135168
0.159619 139264
0.159673 143360
0.159726 147456
0.159779 151552
0.159833 155648
0.159886 159744
0.159939 163840
0.159993 167936
0.160048 172032
0.160102 176128
0.160156 180224
0.160210 184320
0.160264 188416
0.160317 192512
0.160371 196608
0.160427 200704
0.160480 204800
0.160534 208896
0.160588 212992
0.160642 217088
0.160696 221184
0.160749 225280
0.160803 229376
0.160857 233472
0.160911 237568
0.160965 241664
0.161019 245760
0.161073 249856
0.161126 253952
0.161180 258048
0.161234 262144
0.161288 266240
0.161342 270336
0.161395 274432
0.161449 278528
0.161503 282624
0.161557 286720
0.161610 290816
0.161665 294912
0.161719 299008
0.161772 303104
0.161826 307200
0.161880 311296
0.161934 315392
0.161988 319488
0.162042 323584
0.162097 327680
0.162150 331776
0.162203 335872
0.162257 339968
0.162310 344064
0.162364 348160
0.162418 352256
0.162471 356352
0.162524 360448
0.162526 364544
0.162579 368640
0.162633 372736
0.162642 376832
0.162699 380928
0.162753 385024
0.162817 389120
0.162871 393216
0.162924 397312
0.162978 401408
0.163028 405504
0.163081 409600
0.163135 413696
0.163189 417792
0.163243 421888
0.163296 425984
0.163350 430080
0.163404 434176
0.163457 438272
0.163511 442368
0.163564 446464
0.163618 450560
0.163672 454656
0.163726 458752
0.163780 462848
0.163834 466944
0.163906 471040
0.163909 475136
0.163913 479232
0.163975 483328
0.164029 487424
0.164083 491520
0.164137 495616
0.164190 499712
0.164244 503808
0.164298 507904
0.164351 512000
0.164405 516096
0.164459 520192
0.164512 524288
0.164566 528384
0.164619 532480
0.164673 536576
0.164726 540672
0.164780 544768
0.164833 548864
0.164886 552960
0.164940 557056
0.164993 561152
0.165030 565248
0.165084 569344
0.165138 573440
0.165191 577536
0.165245 581632
0.165301 585728
0.165355 589824
0.165408 593920
0.165409 598016
0.165463 602112
0.165517 606208
0.165570 610304
0.165624 614400
0.165678 618496
0.165731 622592
0.165786 626688
0.165842 630784
0.165896 634880
0.165949 638976
0.166003 643072
0.166070 647168
0.166073 651264
0.166077 655360
0.166138 659456
0.166194 663552
0.166199 667648
0.166261 671744
0.166315 675840
0.166369 679936
0.166423 684032
0.166476 688128
0.166530 692224
0.166584 696320
0.166638 700416
0.166692 704512
0.166745 708608
0.166799 712704
0.166853 716800
0.166907 720896
0.166961 724992
0.167014 729088
0.167068 733184
0.167122 737280
0.167176 741376
0.167178 745472
0.167231 749568
0.167285 753664
0.167341 757760
0.167394 761856
0.167448 765952
0.167502 770048
0.167556 774144
0.167609 778240
0.167663 782336
0.167717 786432
0.167771 790528
0.167824 794624
0.167878 798720
0.167932 802816
0.167985 806912
0.168039 811008
0.168092 815104
0.168147 819200
0.168201 823296
0.168254 827392
0.168308 831488
0.168362 835584
0.168416 839680
0.168469 843776
0.168523 847872
0.168577 851968
0.168630 856064
0.168684 860160
0.168738 864256
0.168791 868352
0.168845 872448
0.168899 876544
0.168953 880640
0.169008 884736
0.169062 888832
0.169116 892928
0.169170 897024
0.169223 901120
0.169277 905216
0.169331 909312
0.169384 913408
0.169438 917504
0.169492 921600
0.169545 925696
0.169599 929792
0.169653 933888
0.169706 937984
0.169760 942080
0.169814 946176
0.169867 950272
0.169921 954368
0.169975 958464
0.170029 962560
0.170083 966656
0.170136 970752
0.170190 974848
0.170247 978944
0.170300 983040
0.170354 987136
0.170408 991232
0.170462 995328
0.170515 999424
0.170569 1003520
0.170623 1007616
0.170678 1011712
0.170731 1015808
0.170785 1019904
0.170839 1024000
0.170892 1028096
0.170946 1032192
0.171000 1036288
0.171053 1040384
0.171107 1044480
0.171160 1048576
0.171213 1052672
0.171267 1056768
0.171320 1060864
0.171373 1064960
0.171427 1069056
0.171480 1073152
0.171533 1077248
0.171587 1081344
0.171589 1085440
0.171594 1089536
0.171702 1093632
0.171755 1097728
0.171809 1101824
0.171810 1105920
0.171863 1110016
0.171916 1114112
0.171970 1118208
0.172023 1122304
0.172081 1126400
0.172135 1130496
0.172189 1134592
0.172243 1138688
0.202515 1142784
0.223387 1146880
0.244438 1150976
0.244469 1155072
0.244470 1159168
0.244474 1163264
0.244482 1167360
0.244490 1171456
0.244494 1167360
0.244494 1163264
0.244521 1167360
0.244535 1163264
0.244535 1159168
0.244543 1163264
0.244553 1159168
0.244553 1155072
0.244558 1159168
0.244569 1155072
0.244569 1150976
0.244570 1146880
0.244571 1150976
0.244582 1146880
0.244582 1142784
0.244582 1138688
0.244583 1134592
0.244621 1138688
0.244658 1142784
0.244694 1138688
0.244694 1134592
0.244694 1130496
0.244694 1126400
0.244695 1122304
0.244695 1118208
0.244696 1114112
0.244696 1110016
0.244696 1105920
0.244699 1101824
0.244700 1097728
0.244700 1093632
0.244700 1089536
0.244700 1085440
0.244700 1081344
0.244700 1077248
0.244701 1073152
0.244701 1069056
0.244702 1064960
0.244702 1060864
0.244702 1056768
0.244703 1052672
0.244703 1048576
0.244703 1044480
0.244703 1040384
0.244704 1036288
0.244704 1032192
0.244704 1028096
0.244705 1024000
0.244705 1019904
0.244706 1015808
0.244706 1011712
0.244706 1007616
0.244706 1003520
0.244706 999424
0.244706 995328
0.244706 991232
0.244707 987136
0.244707 983040
0.244707 978944
0.244707 974848
0.244707 970752
0.244708 966656
0.244708 962560
0.244709 958464
0.244709 954368
0.244709 950272
0.244709 946176
0.244710 942080
0.244710 937984
0.244710 933888
0.244711 929792
0.244711 925696
0.244711 921600
0.244712 917504
0.244712 913408
0.244712 909312
0.244712 905216
0.244712 901120
0.244712 897024
0.244713 892928
0.244713 888832
0.244714 884736
0.244717 880640
0.244717 876544
0.244717 872448
0.244718 868352
0.244718 864256
0.244718 860160
0.244718 856064
0.244719 851968
0.244719 847872
0.244719 843776
0.244719 839680
0.244720 835584
0.244720 831488
0.244720 827392
0.244720 823296
0.244720 819200
0.244720 815104
0.244721 811008
0.244721 806912
0.244722 802816
0.244722 798720
0.244722 794624
0.244722 790528
0.244722 786432
0.244722 782336
0.244723 778240
0.244723 774144
0.244723 770048
0.244723 765952
0.244723 761856
0.244723 757760
0.244725 753664
0.244726 749568
0.244727 745472
0.244727 741376
0.244727 737280
0.244728 733184
0.244728 729088
0.244728 724992
0.244728 720896
0.244729 716800
0.244729 712704
0.244729 708608
0.244729 704512
0.244729 700416
0.244729 696320
0.244731 692224
0.244731 688128
0.244731 684032
0.244731 679936
0.244731 675840
0.244732 671744
0.244732 667648
0.244732 663552
0.244732 659456
0.244732 655360
0.244732 651264
0.244733 647168
0.244733 643072
0.244733 638976
0.244734 634880
0.244734 630784
0.244736 626688
0.244736 622592
0.244736 618496
0.244736 614400
0.244736 610304
0.244737 606208
0.244737 602112
0.244737 598016
0.244737 593920
0.244737 589824
0.244737 585728
0.244738 581632
0.244739 577536
0.244739 573440
0.244739 569344
0.244739 565248
0.244739 561152
0.244739 557056
0.244740 552960
0.244740 548864
0.244740 544768
0.244740 540672
0.244740 536576
0.244740 532480
0.244741 528384
0.244741 524288
0.244742 520192
0.244742 516096
0.244742 512000
0.244742 507904
0.244742 503808
0.244744 499712
0.244745 495616
0.244745 491520
0.244745 487424
0.244745 483328
0.244745 479232
0.244745 475136
0.244746 471040
0.244746 466944
0.244747 462848
0.244747 458752
0.244747 454656
0.244747 450560
0.244748 446464
0.244748 442368
0.244748 438272
0.244748 434176
0.244748 430080
0.244748 425984
0.244749 421888
0.244749 417792
0.244749 413696
0.244749 409600
0.244750 405504
0.244750 401408
0.244750 397312
0.244751 393216
0.244751 389120
0.244751 385024
0.244751 380928
0.244751 376832
0.244754 372736
0.244754 368640
0.244754 364544
0.244754 360448
0.244754 356352
0.244754 352256
0.244755 348160
0.244755 344064
0.244756 339968
0.244756 335872
0.244756 331776
0.244756 327680
0.244756 323584
0.244756 319488
0.244757 315392
0.244757 311296
0.244757 307200
0.244757 303104
0.244757 299008
0.244757 294912
0.244758 290816
0.244759 286720
0.244759 282624
0.244759 278528
0.244759 274432
0.244759 270336
0.244759 266240
0.244760 262144
0.244760 258048
0.244760 253952
0.244760 249856
0.244762 245760
0.244762 241664
0.244762 237568
0.244763 233472
0.244764 229376
0.244764 225280
0.244764 221184
0.244764 217088
0.244764 212992
0.244764 208896
0.244765 204800
0.244765 200704
0.244765 196608
0.244765 192512
0.244765 188416
0.244765 184320
0.244766 180224
0.244767 176128
0.244767 172032
0.244767 167936
0.244767 163840
0.244767 159744
0.244767 155648
0.244768 151552
0.244768 147456
0.244768 143360
0.244768 139264
0.244768 135168
0.244768 131072
0.244769 126976
0.244769 122880
0.244771 118784
0.244771 114688
0.244772 110592
0.244772 106496
0.244772 102400
0.244772 98304
0.244772 94208
0.244772 90112
0.244773 86016
0.244773 81920
0.244773 77824
0.244773 73728
0.244773 69632
0.244773 65536
0.244774 61440
0.244775 57344
0.244775 53248
0.244775 49152
0.244775 45056
0.244775 40960
0.244775 36864
0.244776 32768
0.244776 28672
0.244776 24576
0.244776 20480
0.244776 16384
0.244776 12288
0.244777 8192
0.244778 4096
0.244778 0
0.244778 -4096
0.244780 -8192
0.244780 -12288
0.244780 -16384
0.244780 -20480
0.244780 -24576
0.244781 -28672
0.244781 -32768
0.244781 -36864
0.244781 -40960
0.244781 -45056
0.244781 -49152
0.244782 -53248
0.244783 -57344
0.244783 -61440
0.244783 -65536
0.244783 -69632
0.244783 -73728
0.244783 -77824
0.244784 -81920
0.244784 -86016
0.244784 -90112
0.244784 -94208
0.244784 -98304
0.244784 -102400
0.244785 -106496
0.244786 -110592
0.244786 -114688
0.244786 -118784
0.244786 -122880
0.244786 -126976
0.244786 -131072
0.244788 -135168
0.244788 -139264
0.244788 -143360
0.244788 -147456
0.244788 -151552
0.244789 -155648
0.244789 -159744
0.244789 -163840
0.244790 -167936
0.244790 -172032
0.244790 -176128
0.244791 -180224
0.244791 -184320
0.244791 -188416
0.244791 -192512
0.244791 -196608
0.244791 -200704
0.244792 -204800
0.244792 -208896
0.244792 -212992
0.244792 -217088
0.244792 -221184
0.244793 -225280
0.244793 -229376
0.244793 -233472
0.244794 -237568
0.244794 -241664
0.244794 -245760
0.244794 -249856
0.244794 -253952
0.244795 -258048
0.244797 -262144
0.244797 -266240
0.244797 -270336
0.244798 -274432
0.244798 -278528
0.244798 -282624
0.244798 -286720
0.244798 -290816
0.244799 -294912
0.244799 -299008
0.244799 -303104
0.244799 -307200
0.244799 -311296
0.244799 -315392
0.244800 -319488
0.244800 -323584
0.244800 -327680
0.244800 -331776
0.244801 -335872
0.244801 -339968
0.244801 -344064
0.244801 -348160
0.244801 -352256
0.244801 -356352
0.244802 -360448
0.244802 -364544
0.244802 -368640
0.244802 -372736
0.244802 -376832
0.244802 -380928
0.244803 -385024
0.244805 -389120
0.244805 -393216
0.244805 -397312
