4843  execve("./multilock-all.sh", ["./multilock-all.sh"], [/* 69 vars */]) = 0
4843  brk(0)                            = 0x1360000
4843  mmap(NULL, 4096, PROT_READ|PROT_WRITE, MAP_PRIVATE|MAP_ANONYMOUS, -1, 0) = 0x7fdab40f9000
4843  access("/etc/ld.so.preload", R_OK) = -1 ENOENT (No such file or directory)
4843  open("/etc/ld.so.cache", O_RDONLY|O_CLOEXEC) = 3
4843  fstat(3, {st_mode=S_IFREG|0644, st_size=324184, ...}) = 0
4843  mmap(NULL, 324184, PROT_READ, MAP_PRIVATE, 3, 0) = 0x7fdab40a9000
4843  close(3)                          = 0
4843  open("/lib64/libtinfo.so.5", O_RDONLY|O_CLOEXEC) = 3
4843  read(3, "\177ELF\2\1\1\0\0\0\0\0\0\0\0\0\3\0>\0\1\0\0\0@\316 C7\0\0\0"..., 832) = 832
4843  fstat(3, {st_mode=S_IFREG|0755, st_size=175560, ...}) = 0
4843  mmap(0x3743200000, 2268928, PROT_READ|PROT_EXEC, MAP_PRIVATE|MAP_DENYWRITE, 3, 0) = 0x3743200000
4843  mprotect(0x3743225000, 2097152, PROT_NONE) = 0
4843  mmap(0x3743425000, 20480, PROT_READ|PROT_WRITE, MAP_PRIVATE|MAP_FIXED|MAP_DENYWRITE, 3, 0x25000) = 0x3743425000
4843  close(3)                          = 0
4843  open("/lib64/libdl.so.2", O_RDONLY|O_CLOEXEC) = 3
4843  read(3, "\177ELF\2\1\1\0\0\0\0\0\0\0\0\0\3\0>\0\1\0\0\0\320\16\240/7\0\0\0"..., 832) = 832
4843  fstat(3, {st_mode=S_IFREG|0755, st_size=22440, ...}) = 0
4843  mmap(0x372fa00000, 2109744, PROT_READ|PROT_EXEC, MAP_PRIVATE|MAP_DENYWRITE, 3, 0) = 0x372fa00000
4843  mprotect(0x372fa03000, 2093056, PROT_NONE) = 0
4843  mmap(0x372fc02000, 8192, PROT_READ|PROT_WRITE, MAP_PRIVATE|MAP_FIXED|MAP_DENYWRITE, 3, 0x2000) = 0x372fc02000
4843  close(3)                          = 0
4843  open("/lib64/libc.so.6", O_RDONLY|O_CLOEXEC) = 3
4843  read(3, "\177ELF\2\1\1\3\0\0\0\0\0\0\0\0\3\0>\0\1\0\0\0p\36\342/7\0\0\0"..., 832) = 832
4843  fstat(3, {st_mode=S_IFREG|0755, st_size=2096496, ...}) = 0
4843  mmap(NULL, 4096, PROT_READ|PROT_WRITE, MAP_PRIVATE|MAP_ANONYMOUS, -1, 0) = 0x7fdab40a8000
4843  mmap(0x372fe00000, 3920480, PROT_READ|PROT_EXEC, MAP_PRIVATE|MAP_DENYWRITE, 3, 0) = 0x372fe00000
4843  mprotect(0x372ffb4000, 2093056, PROT_NONE) = 0
4843  mmap(0x37301b3000, 24576, PROT_READ|PROT_WRITE, MAP_PRIVATE|MAP_FIXED|MAP_DENYWRITE, 3, 0x1b3000) = 0x37301b3000
4843  mmap(0x37301b9000, 16992, PROT_READ|PROT_WRITE, MAP_PRIVATE|MAP_FIXED|MAP_ANONYMOUS, -1, 0) = 0x37301b9000
4843  close(3)                          = 0
4843  mmap(NULL, 8192, PROT_READ|PROT_WRITE, MAP_PRIVATE|MAP_ANONYMOUS, -1, 0) = 0x7fdab40a6000
4843  arch_prctl(ARCH_SET_FS, 0x7fdab40a6740) = 0
4843  mprotect(0x6dc000, 4096, PROT_READ) = 0
4843  mprotect(0x3743425000, 16384, PROT_READ) = 0
4843  mprotect(0x372fc02000, 4096, PROT_READ) = 0
4843  mprotect(0x37301b3000, 16384, PROT_READ) = 0
4843  mprotect(0x372f81f000, 4096, PROT_READ) = 0
4843  munmap(0x7fdab40a9000, 324184)    = 0
4843  rt_sigprocmask(SIG_BLOCK, NULL, [], 8) = 0
4843  open("/dev/tty", O_RDWR|O_NONBLOCK) = 3
4843  close(3)                          = 0
4843  brk(0)                            = 0x1360000
4843  brk(0x1381000)                    = 0x1381000
4843  brk(0)                            = 0x1381000
4843  open("/usr/lib/locale/locale-archive", O_RDONLY|O_CLOEXEC) = 3
4843  fstat(3, {st_mode=S_IFREG|0644, st_size=106070960, ...}) = 0
4843  mmap(NULL, 106070960, PROT_READ, MAP_PRIVATE, 3, 0) = 0x7fdaadb7d000
4843  close(3)                          = 0
4843  brk(0)                            = 0x1381000
4843  getuid()                          = 22319
4843  getgid()                          = 7006
4843  geteuid()                         = 22319
4843  getegid()                         = 7006
4843  rt_sigprocmask(SIG_BLOCK, NULL, [], 8) = 0
4843  open("/proc/meminfo", O_RDONLY|O_CLOEXEC) = 3
4843  fstat(3, {st_mode=S_IFREG|0444, st_size=0, ...}) = 0
4843  mmap(NULL, 4096, PROT_READ|PROT_WRITE, MAP_PRIVATE|MAP_ANONYMOUS, -1, 0) = 0x7fdab40f8000
4843  read(3, "MemTotal:       16338032 kB\nMemF"..., 1024) = 1024
4843  close(3)                          = 0
4843  munmap(0x7fdab40f8000, 4096)      = 0
4843  rt_sigaction(SIGCHLD, {SIG_DFL, [], SA_RESTORER|SA_RESTART, 0x372fe358f0}, {SIG_DFL, [], 0}, 8) = 